<svg xmlns="http://www.w3.org/2000/svg" width="28" height="20" viewBox="0 0 28 20">
  <g id="cc-mastercard" transform="translate(0 0)">
    <path id="Shape" d="M25,20H3a3,3,0,0,1-3-3V3A3,3,0,0,1,3,0H25a3,3,0,0,1,3,3V17A3,3,0,0,1,25,20ZM3,2A.978.978,0,0,0,2,3V17a.978.978,0,0,0,1,1H25a.978.978,0,0,0,1-1V3a.978.978,0,0,0-1-1ZM18,17a6.933,6.933,0,0,1-4-1.25A6.933,6.933,0,0,1,10,17,7,7,0,1,1,10,3a6.932,6.932,0,0,1,4,1.25A6.934,6.934,0,0,1,18,3a7,7,0,1,1,0,14ZM18,5a4.923,4.923,0,0,0-2.5.687,6.949,6.949,0,0,1,0,8.626A4.924,4.924,0,0,0,18,15,5,5,0,1,0,18,5ZM10,5a5,5,0,1,0,3.313,8.718A5.917,5.917,0,0,1,12.344,12h2.219a4.951,4.951,0,0,0,.343-1H12.093A6.015,6.015,0,0,1,12,10a6.015,6.015,0,0,1,.094-1h2.813a4.974,4.974,0,0,0-.343-1H12.344a5.914,5.914,0,0,1,.969-1.719A4.994,4.994,0,0,0,10,5Z" fill="#9b9b9b"/>
  </g>
</svg>
